{
  "plans": [
    {
      "sequence": 1,
      "label": "Plan 1",
      "template": {
        "elements": [
          {
            "label": "Unlimited public transport (bus-tram-metro)", "icon": "public_transport", "variable": "pt",
            "values": [
              { "status": true, "value": 1 }
            ]
          },
          {
            "label": "Unlimited bike-sharing", "icon": "bike", "variable": "bs",
            "values": [
              { "status": true, "value": 1 },
              { "status": false, "value": 0 }
            ]
          }
        ],
        "multi_prices": false,
        "prices": [
          81.90,
          84,
          85,
          87.50,
          89,
          90
        ],
        "actual_price": 87.1
      }
    },

    {
      "sequence": 2,
      "label": "Plan 2",
      "template": {
        "elements": [
          {
            "label": "Unlimited public transport (bus-tram-metro)", "icon": "public_transport", "variable": "pt",
            "values": [
              { "status": true, "value": 1 },
              { "status": false, "value": 0 }
            ]
          },
          {
            "label": "Unlimited bike-sharing", "icon": "bike", "variable": "bs",
            "values": [
              { "status": true, "value": 1 },
              { "status": false, "value": 0 }
            ]
          },
          {
            "label": "Car-sharing", "icon": "car_sharing", "variable": "cs",
            "values": [
              { "status": true, "sub_label": "5 hours", "value": 5 },
              { "status": true, "sub_label": "15 hours", "value": 15 },
              { "status": true, "sub_label": "20 hours", "value": 20 }
            ]
          }
        ],
        "multi_prices": true,
        "prices": [
          [
            120,
            125,
            130,
            135,
            140,
            145,
            150,
            155,
            160,
            165,
            170,
            175,
            180,
            185,
            190,
            195,
            200
          ],

          [
            49,
            50,
            55,
            59,
            65,
            69,
            75,
            79,
            85,
            89,
            95,
            99,
            100,
            105,
            109
          ]
        ],
        "actual_price": 129.58
      }
    },

    {
      "sequence": 3,
      "label": "Plan 3",
      "template": {
        "elements": [
          {
            "label": "Unlimited public transport (bus-tram-metro)", "icon": "public_transport", "variable": "pt",
            "values": [
              { "status": true, "value": 1 }
            ]
          },
          {
            "label": "Unlimited bike-sharing", "icon": "bike", "variable": "bs",
            "values": [
              { "status": true, "value": 1 },
              { "status": false, "value": 0 }
            ]
          },
          {
            "label": "Car-sharing", "icon": "car_sharing", "variable": "cs",
            "values": [
              { "status": true, "sub_label": "5 hours", "value": 5 },
              { "status": true, "sub_label": "15 hours", "value": 10 },
              { "status": true, "sub_label": "20 hours", "value": 15 },
              { "status": true, "sub_label": "Unlimited access", "value": 99 }
            ]
          },
          {
            "label": "Taxi", "icon": "taxi", "variable": "tx",
            "values": [
              { "status": true, "sub_label": "2 trips", "value": 1 },
              { "status": true, "sub_label": "4 trips", "value": 2 },
              { "status": true, "sub_label": "6 trips", "value": 3 }
            ]
          }
        ],
        "multi_prices": true,
        "prices": [
          [
            150,
            155,
            160,
            165,
            169,
            175,
            179
          ],

          [
            199,
            200,
            205,
            210,
            220,
            225,
            230,
            235,
            240,
            245,
            250,
            255
          ],

          [
            165,
            169,
            170,
            175,
            179,
            180,
            185,
            189,
            195,
            199,
            200
          ],

          [
            225,
            230,
            250,
            260,
            270,
            275,
            280,
            285,
            289,
            290,
            299,
            300,
            309,
            315,
            320,
            325,
            329,
            335,
            345,
            350,
            355,
            360
          ]
        ],
        "actual_price": 199.7
      }
    }
  ]
}
